﻿


EVENT   2
 PAGE   1
  // condition: switch 31 is ON
  0()



EVENT   1
 PAGE   1
  ChangeSwitch(31,31,1)
  Wait(60)
  222()
  Wait(15)
  250(bytes(0x04,0x08,0x6f,0x3a,0x0c,0x52,0x50,0x47,0x3a,0x3a,0x53,0x45,0x08,0x3a,0x0a,0x40,0x6e,0x61,0x6d,0x65,0x49,0x22,0x0f,0x6d,0x6f,0x6e,0x5f,0x65,0x61,0x72,0x74,0x68,0x32,0x06,0x3a,0x06,0x45,0x54,0x3a,0x0b,0x40,0x70,0x69,0x74,0x63,0x68,0x69,0x69,0x3a,0x0c,0x40,0x76,0x6f,0x6c,0x75,0x6d,0x65,0x69,0x69))
  225(7,7,120,false)
  If(0,4,0)
   ShowMessageFace("alice_fc6",1,0,2,1)
   ShowMessage("\\n<Alice>急げ、ここも危険だぞ！")
   0()
  EndIf()
  If(0,5,0)
   ShowMessageFace("iriasu_fc4",7,0,2,2)
   ShowMessage("\\n<Ilias>急ぐのです、ここももちません！")
   0()
  EndIf()
  205(-1,bytes(0x04,0x08,0x6f,0x3a,0x13,0x52,0x50,0x47,0x3a,0x3a,0x4d,0x6f,0x76,0x65,0x52,0x6f,0x75,0x74,0x65,0x09,0x3a,0x0c,0x40,0x72,0x65,0x70,0x65,0x61,0x74,0x46,0x3a,0x0f,0x40,0x73,0x6b,0x69,0x70,0x70,0x61,0x62,0x6c,0x65,0x46,0x3a,0x0a,0x40,0x77,0x61,0x69,0x74,0x54,0x3a,0x0a,0x40,0x6c,0x69,0x73,0x74,0x5b,0x0e,0x6f,0x3a,0x15,0x52,0x50,0x47,0x3a,0x3a,0x4d,0x6f,0x76,0x65,0x43,0x6f,0x6d,0x6d,0x61,0x6e,0x64,0x07,0x3a,0x0a,0x40,0x63,0x6f,0x64,0x65,0x69,0x22,0x3a,0x10,0x40,0x70,0x61,0x72,0x61,0x6d,0x65,0x74,0x65,0x72,0x73,0x5b,0x06,0x69,0x0a,0x6f,0x3b,0x0a,0x07,0x3b,0x0b,0x69,0x23,0x3b,0x0c,0x5b,0x06,0x69,0x09,0x6f,0x3b,0x0a,0x07,0x3b,0x0b,0x69,0x06,0x3b,0x0c,0x5b,0x00,0x6f,0x3b,0x0a,0x07,0x3b,0x0b,0x69,0x06,0x3b,0x0c,0x5b,0x00,0x6f,0x3b,0x0a,0x07,0x3b,0x0b,0x69,0x06,0x3b,0x0c,0x5b,0x00,0x6f,0x3b,0x0a,0x07,0x3b,0x0b,0x69,0x06,0x3b,0x0c,0x5b,0x00,0x6f,0x3b,0x0a,0x07,0x3b,0x0b,0x69,0x06,0x3b,0x0c,0x5b,0x00,0x6f,0x3b,0x0a,0x07,0x3b,0x0b,0x69,0x06,0x3b,0x0c,0x5b,0x00,0x6f,0x3b,0x0a,0x07,0x3b,0x0b,0x69,0x00,0x3b,0x0c,0x5b,0x00))
  250(bytes(0x04,0x08,0x6f,0x3a,0x0c,0x52,0x50,0x47,0x3a,0x3a,0x53,0x45,0x08,0x3a,0x0a,0x40,0x6e,0x61,0x6d,0x65,0x49,0x22,0x0e,0x44,0x61,0x72,0x6b,0x6e,0x65,0x73,0x73,0x31,0x06,0x3a,0x06,0x45,0x54,0x3a,0x0b,0x40,0x70,0x69,0x74,0x63,0x68,0x69,0x69,0x3a,0x0c,0x40,0x76,0x6f,0x6c,0x75,0x6d,0x65,0x69,0x55))
  ChangeSwitch(31,31,0)
  205(-1,bytes(0x04,0x08,0x6f,0x3a,0x13,0x52,0x50,0x47,0x3a,0x3a,0x4d,0x6f,0x76,0x65,0x52,0x6f,0x75,0x74,0x65,0x09,0x3a,0x0c,0x40,0x72,0x65,0x70,0x65,0x61,0x74,0x46,0x3a,0x0f,0x40,0x73,0x6b,0x69,0x70,0x70,0x61,0x62,0x6c,0x65,0x46,0x3a,0x0a,0x40,0x77,0x61,0x69,0x74,0x54,0x3a,0x0a,0x40,0x6c,0x69,0x73,0x74,0x5b,0x07,0x6f,0x3a,0x15,0x52,0x50,0x47,0x3a,0x3a,0x4d,0x6f,0x76,0x65,0x43,0x6f,0x6d,0x6d,0x61,0x6e,0x64,0x07,0x3a,0x0a,0x40,0x63,0x6f,0x64,0x65,0x69,0x17,0x3a,0x10,0x40,0x70,0x61,0x72,0x61,0x6d,0x65,0x74,0x65,0x72,0x73,0x5b,0x00,0x6f,0x3b,0x0a,0x07,0x3b,0x0b,0x69,0x00,0x3b,0x0c,0x5b,0x00))
  ShowSpeechBalloon(-1,1,false)
  ShowMessageFace("ruka_fc1",0,0,2,3)
  ShowMessage("\\n<Luka>そんな、まだ生きて――")
  ShowMessageFace("adramelek_fc1",6,0,2,4)
  ShowMessage("\\n<Adramelech>逃がしはしない…… 私もろとも、ここで消滅せよ……")
  ShowMessageFace("",0,0,2,5)
  ShowMessage("アドラメレクはルカの体にしがみついた！")
  ShowMessageFace("ruka_fc1",0,0,2,6)
  ShowMessage("\\n<Luka>ぐっ、離せ……！")
  If(0,4,0)
   ShowMessageFace("alice_fc6",0,0,2,7)
   ShowMessage("\\n<Alice>まずい、ここで戦う時間の余裕など……！")
   0()
  EndIf()
  If(0,5,0)
   ShowMessageFace("iriasu_fc4",5,0,2,8)
   ShowMessage("\\n<Ilias>すぐにここも消えます、戦う余裕なんて……！")
   0()
  EndIf()
  Wait(15)
  250(bytes(0x04,0x08,0x6f,0x3a,0x0c,0x52,0x50,0x47,0x3a,0x3a,0x53,0x45,0x08,0x3a,0x0a,0x40,0x6e,0x61,0x6d,0x65,0x49,0x22,0x0f,0x6d,0x6f,0x6e,0x5f,0x65,0x61,0x72,0x74,0x68,0x32,0x06,0x3a,0x06,0x45,0x54,0x3a,0x0b,0x40,0x70,0x69,0x74,0x63,0x68,0x69,0x69,0x3a,0x0c,0x40,0x76,0x6f,0x6c,0x75,0x6d,0x65,0x69,0x69))
  225(7,7,120,false)
  ShowMessageFace("adramelek_fc1",6,0,2,9)
  ShowMessage("\\n<Adramelech>消滅せよ……消滅せよ……消滅せよ……")
  ShowMessageFace("",0,0,2,10)
  ShowMessage("周囲の足場も崩れ、ここも崩壊が始まる。 覚悟を決めた、その次の瞬間――")
  250(bytes(0x04,0x08,0x6f,0x3a,0x0c,0x52,0x50,0x47,0x3a,0x3a,0x53,0x45,0x08,0x3a,0x0a,0x40,0x6e,0x61,0x6d,0x65,0x49,0x22,0x0f,0x6d,0x6f,0x6e,0x5f,0x73,0x6c,0x61,0x73,0x68,0x33,0x06,0x3a,0x06,0x45,0x54,0x3a,0x0b,0x40,0x70,0x69,0x74,0x63,0x68,0x69,0x69,0x3a,0x0c,0x40,0x76,0x6f,0x6c,0x75,0x6d,0x65,0x69,0x69))
  PictureDisplay(1,"sys_cut",0,0,0,0,100,100,0,0)
  PictureMove(1,null,0,0,0,0,100,100,255,0,30,true)
  Wait(15)
  241(bytes(0x04,0x08,0x6f,0x3a,0x0d,0x52,0x50,0x47,0x3a,0x3a,0x42,0x47,0x4d,0x08,0x3a,0x0a,0x40,0x6e,0x61,0x6d,0x65,0x49,0x22,0x0c,0x62,0x6f,0x73,0x73,0x30,0x2d,0x33,0x06,0x3a,0x06,0x45,0x54,0x3a,0x0c,0x40,0x76,0x6f,0x6c,0x75,0x6d,0x65,0x69,0x69,0x3a,0x0b,0x40,0x70,0x69,0x74,0x63,0x68,0x69,0x69))
  PictureDisplay(5,"iv_marcellus1",0,0,0,0,100,100,255,0)
  PictureClear(1)
  ChangeSwitch(31,31,1)
  ShowMessageFace("",0,0,2,11)
  ShowMessage("それは、まさに刹那の一閃だった。")
  ShowMessageFace("",0,0,2,12)
  ShowMessage("突然に躍り出た影が、背後からアドラメレクを両断する。 分断されたアドラメレクの残骸は、そのまま亜空に消えていった――")
  PictureDisplay(5,"80_marcellus_st01",0,0,0,0,100,100,255,0)
  ShowMessageFace("marcellus_fc1",0,0,2,13)
  ShowMessage("\\n<???>……………………")
  ShowMessageFace("ruka_fc1",0,0,2,14)
  ShowMessage("\\n<Luka>ま、まさか――")
  ShowMessageFace("",0,0,2,15)
  ShowMessage("絶対に忘れるはずのない、懐かしい顔。 これまでずっと、その背を追い掛けてきた――")
  ShowMessageFace("ruka_fc1",0,0,2,16)
  ShowMessage("\\n<Luka>と……父さん！？")
  ShowMessageFace("marcellus_fc1",0,0,2,17)
  ShowMessage("\\n<Marcellus>ルカ……お前は、自分の世界を守れ。 それ以外は、全て私が守る……")
  PictureDisplay(5,"iv_marcellus2",0,0,0,0,100,100,0,0)
  PictureMove(5,null,0,0,0,0,100,100,255,0,60,true)
  ShowMessageFace("",0,0,2,18)
  ShowMessage("そのまま、父さんは僕に背中を向け―― そして、消え行く異空間の中へと歩み去って行く。")
  ShowMessageFace("ruka_fc1",0,0,2,19)
  ShowMessage("\\n<Luka>父さん、待って……！！")
  205(-1,bytes(0x04,0x08,0x6f,0x3a,0x13,0x52,0x50,0x47,0x3a,0x3a,0x4d,0x6f,0x76,0x65,0x52,0x6f,0x75,0x74,0x65,0x09,0x3a,0x0c,0x40,0x72,0x65,0x70,0x65,0x61,0x74,0x46,0x3a,0x0f,0x40,0x73,0x6b,0x69,0x70,0x70,0x61,0x62,0x6c,0x65,0x46,0x3a,0x0a,0x40,0x77,0x61,0x69,0x74,0x54,0x3a,0x0a,0x40,0x6c,0x69,0x73,0x74,0x5b,0x07,0x6f,0x3a,0x15,0x52,0x50,0x47,0x3a,0x3a,0x4d,0x6f,0x76,0x65,0x43,0x6f,0x6d,0x6d,0x61,0x6e,0x64,0x07,0x3a,0x0a,0x40,0x63,0x6f,0x64,0x65,0x69,0x15,0x3a,0x10,0x40,0x70,0x61,0x72,0x61,0x6d,0x65,0x74,0x65,0x72,0x73,0x5b,0x00,0x6f,0x3b,0x0a,0x07,0x3b,0x0b,0x69,0x00,0x3b,0x0c,0x5b,0x00))
  Wait(15)
  250(bytes(0x04,0x08,0x6f,0x3a,0x0c,0x52,0x50,0x47,0x3a,0x3a,0x53,0x45,0x08,0x3a,0x0a,0x40,0x6e,0x61,0x6d,0x65,0x49,0x22,0x0f,0x6d,0x6f,0x6e,0x5f,0x65,0x61,0x72,0x74,0x68,0x32,0x06,0x3a,0x06,0x45,0x54,0x3a,0x0b,0x40,0x70,0x69,0x74,0x63,0x68,0x69,0x69,0x3a,0x0c,0x40,0x76,0x6f,0x6c,0x75,0x6d,0x65,0x69,0x69))
  225(7,7,120,false)
  If(0,4,0)
   ShowMessageFace("alice_fc6",1,0,2,20)
   ShowMessage("\\n<Alice>追うな、ルカ！ ここはもう危険だ、脱出するぞ！")
   0()
  EndIf()
  If(0,5,0)
   ShowMessageFace("iriasu_fc4",7,0,2,21)
   ShowMessage("\\n<Ilias>追っている余裕はありません、脱出しますよ！")
   0()
  EndIf()
  ShowMessageFace("ruka_fc1",0,0,2,22)
  ShowMessage("\\n<Luka>……………………")
  ShowMessageFace("",0,0,2,23)
  ShowMessage("しっかりと目に焼き付けた、父さんの背中。 その姿が、異空間の中へと消えていく。")
  ShowMessageFace("",0,0,2,24)
  ShowMessage("崩壊に巻き込まれたわけではない。 また、別の異空間に旅立ったのだ――")
  PictureMove(5,null,0,0,0,0,100,100,0,0,60,true)
  PictureClear(5)
  ShowMessageFace("ruka_fc1",0,0,2,25)
  ShowMessage("\\n<Luka>……僕達も、脱出しよう！")
  If(0,4,0)
   ShowMessageFace("alice_fc5",2,0,2,26)
   ShowMessage("\\n<Alice>もはや猶予はない！　急ぐぞ！")
   0()
  EndIf()
  If(0,5,0)
   ShowMessageFace("iriasu_fc4",7,0,2,27)
   ShowMessage("\\n<Ilias>時間の猶予はありません、急ぎますよ！")
   0()
  EndIf()
  Wait(15)
  250(bytes(0x04,0x08,0x6f,0x3a,0x0c,0x52,0x50,0x47,0x3a,0x3a,0x53,0x45,0x08,0x3a,0x0a,0x40,0x6e,0x61,0x6d,0x65,0x49,0x22,0x0f,0x6d,0x6f,0x6e,0x5f,0x65,0x61,0x72,0x74,0x68,0x32,0x06,0x3a,0x06,0x45,0x54,0x3a,0x0b,0x40,0x70,0x69,0x74,0x63,0x68,0x69,0x69,0x3a,0x0c,0x40,0x76,0x6f,0x6c,0x75,0x6d,0x65,0x69,0x69))
  225(7,7,120,false)
  205(-1,bytes(0x04,0x08,0x6f,0x3a,0x13,0x52,0x50,0x47,0x3a,0x3a,0x4d,0x6f,0x76,0x65,0x52,0x6f,0x75,0x74,0x65,0x09,0x3a,0x0c,0x40,0x72,0x65,0x70,0x65,0x61,0x74,0x46,0x3a,0x0f,0x40,0x73,0x6b,0x69,0x70,0x70,0x61,0x62,0x6c,0x65,0x46,0x3a,0x0a,0x40,0x77,0x61,0x69,0x74,0x54,0x3a,0x0a,0x40,0x6c,0x69,0x73,0x74,0x5b,0x12,0x6f,0x3a,0x15,0x52,0x50,0x47,0x3a,0x3a,0x4d,0x6f,0x76,0x65,0x43,0x6f,0x6d,0x6d,0x61,0x6e,0x64,0x07,0x3a,0x0a,0x40,0x63,0x6f,0x64,0x65,0x69,0x22,0x3a,0x10,0x40,0x70,0x61,0x72,0x61,0x6d,0x65,0x74,0x65,0x72,0x73,0x5b,0x06,0x69,0x0a,0x6f,0x3b,0x0a,0x07,0x3b,0x0b,0x69,0x23,0x3b,0x0c,0x5b,0x06,0x69,0x09,0x6f,0x3b,0x0a,0x07,0x3b,0x0b,0x69,0x06,0x3b,0x0c,0x5b,0x00,0x6f,0x3b,0x0a,0x07,0x3b,0x0b,0x69,0x06,0x3b,0x0c,0x5b,0x00,0x6f,0x3b,0x0a,0x07,0x3b,0x0b,0x69,0x06,0x3b,0x0c,0x5b,0x00,0x6f,0x3b,0x0a,0x07,0x3b,0x0b,0x69,0x06,0x3b,0x0c,0x5b,0x00,0x6f,0x3b,0x0a,0x07,0x3b,0x0b,0x69,0x06,0x3b,0x0c,0x5b,0x00,0x6f,0x3b,0x0a,0x07,0x3b,0x0b,0x69,0x06,0x3b,0x0c,0x5b,0x00,0x6f,0x3b,0x0a,0x07,0x3b,0x0b,0x69,0x06,0x3b,0x0c,0x5b,0x00,0x6f,0x3b,0x0a,0x07,0x3b,0x0b,0x69,0x06,0x3b,0x0c,0x5b,0x00,0x6f,0x3b,0x0a,0x07,0x3b,0x0b,0x69,0x22,0x3b,0x0c,0x5b,0x06,0x69,0x09,0x6f,0x3b,0x0a,0x07,0x3b,0x0b,0x69,0x23,0x3b,0x0c,0x5b,0x06,0x69,0x08,0x6f,0x3b,0x0a,0x07,0x3b,0x0b,0x69,0x00,0x3b,0x0c,0x5b,0x00))
  211(0)
  221()
  242(2)
  Wait(180)
  211(1)
  TeleportPlayer(0,2,148,243,2,2)
  222()
  Wait(60)
  ChangeVariable(1001,1001,0,0,19)
  ChangeVariable(1002,1002,0,0,2)
  ChangeSwitch(100,100,1)
  ChangeSwitch(94,94,1)
  ChangeSaveEnabled(1)
  If(0,4,0)
   ShowMessageFace("alice_fc5",0,0,2,28)
   ShowMessage("\\n<Alice>なんとか、無事に戻ることができたな。 どうなる事かと思ったぞ……")
   0()
  EndIf()
  If(0,5,0)
   ShowMessageFace("iriasu_fc4",2,0,2,29)
   ShowMessage("\\n<Ilias>なんとか無事に戻れましたね。 本当に危ないタイミングでした……")
   0()
  EndIf()
  ShowMessageFace("ruka_fc1",0,0,2,30)
  ShowMessage("\\n<Luka>助かったのは良かったけど…… 父さんは、いったい……")
  If(0,4,0)
   ShowMessageFace("alice_fc5",0,0,2,31)
   ShowMessage("\\n<Alice>あの戦士が、ルカの父親か…… やはり彼は、並行世界を移動できる力があったのだな。")
   ShowMessageFace("alice_fc5",3,0,2,32)
   ShowMessage("\\n<Alice>見たところ、相当の修羅場をくぐったようだが…… いったい何を相手に、どれだけ戦ってきたのか……")
   0()
  EndIf()
  If(0,5,0)
   ShowMessageFace("iriasu_fc4",2,0,2,33)
   ShowMessage("\\n<Ilias>やはりマルケルスは、並行世界を行き来していた…… なぜ彼が、そのような力を……")
   ShowMessageFace("iriasu_fc4",2,0,2,34)
   ShowMessage("\\n<Ilias>また、戦闘技能が私の知っているマルケルスとは段違いです。 いったい何を相手に、どれほどの戦いを重ねてきたのか……")
   0()
  EndIf()
  If(0,6,0)
   ShowMessageFace("sonia_fc1",4,0,2,35)
   ShowMessage("\\n<Sonya>でも、ルカを助けてくれたじゃない。 やっぱり間違いなく、ルカのことを大切に思ってるんだよ。")
   ShowMessageFace("ruka_fc1",0,0,2,36)
   ShowMessage("\\n<Luka>……そうだね。 そして父さんは、この世界を守れって言ってた……")
   0()
  Else()
   ShowMessageFace("ruka_fc1",0,0,2,37)
   ShowMessage("\\n<Luka>そして父さんは、この世界を守れって言ってた……")
   0()
  EndIf()
  If(0,4,0)
   ShowMessageFace("alice_fc5",3,0,2,38)
   ShowMessage("\\n<Alice>ラ・クロワと会った並行世界は、消滅してしまった。 そしてこのままでは、我々の世界もいずれ――")
   0()
  EndIf()
  If(0,5,0)
   ShowMessageFace("iriasu_fc4",2,0,2,39)
   ShowMessage("\\n<Ilias>ラ・クロワと会った並行世界は、消滅してしまいました。 私達の世界も、同じ道を辿るという事ですが――")
   0()
  EndIf()
  ShowMessageFace("ruka_fc1",0,0,2,40)
  ShowMessage("\\n<Luka>……………………")
  ShowMessageFace("",0,0,2,41)
  ShowMessage("僕の懐に入っているノート。 これは、あの絶望に満ちた世界から託された最後の希望。")
  ShowMessageFace("",0,0,2,42)
  ShowMessage("約束通り、これを届けなければならない。 どこかにいるであろう、この世界のラ・クロワに――")
  241(bytes(0x04,0x08,0x6f,0x3a,0x0d,0x52,0x50,0x47,0x3a,0x3a,0x42,0x47,0x4d,0x08,0x3a,0x0a,0x40,0x6e,0x61,0x6d,0x65,0x49,0x22,0x14,0x73,0x63,0x65,0x6e,0x65,0x5f,0x65,0x70,0x69,0x6c,0x6f,0x67,0x75,0x65,0x31,0x06,0x3a,0x06,0x45,0x54,0x3a,0x0c,0x40,0x76,0x6f,0x6c,0x75,0x6d,0x65,0x69,0x69,0x3a,0x0b,0x40,0x70,0x69,0x74,0x63,0x68,0x69,0x69))
  If(0,6,0)
   ShowMessageFace("sonia_fc4",0,0,2,43)
   ShowMessage("\\n<Sonya>またまた、やるべき事が増えたわね。 なんとも用事の多い冒険なこと……")
   0()
  Else()
   ShowMessageFace("ruka_fc1",0,0,2,44)
   ShowMessage("\\n<Luka>……また、やるべき事が増えたね。")
   0()
  EndIf()
  If(0,4,0)
   ShowMessageFace("alice_fc5",0,0,2,45)
   ShowMessage("\\n<Alice>……しかし、ある意味では収束しつつある。 こちらの世界も、滅亡が迫っているという事が分かったのだ。")
   ShowMessageFace("alice_fc5",0,0,2,46)
   ShowMessage("\\n<Alice>正しい歴史から外れるほどに、滅亡の危険は早まる…… 貴様の父もそれを知り、並行世界を旅しているようだ。")
   ShowMessageFace("alice_fc5",0,0,2,47)
   ShowMessage("\\n<Alice>白兎の目的も、おそらくは世界の正常化―― やはり全ては、一本の糸で繋がっていたのだ。")
   0()
  EndIf()
  If(0,5,0)
   ShowMessageFace("iriasu_fc4",2,0,2,48)
   ShowMessage("\\n<Ilias>……しかし、ある意味では収束しつつありますね。 こちらの世界も、カオス化が近いという事が判明しました。")
   ShowMessageFace("iriasu_fc4",2,0,2,49)
   ShowMessage("\\n<Ilias>正しい歴史から外れるほどに、カオス化は促進する…… マルケルスもそれを知り、並行世界を旅しているようです。")
   ShowMessageFace("iriasu_fc4",2,0,2,50)
   ShowMessage("\\n<Ilias>白兎の目的も、おそらくは世界の正常化―― 私の予想通り、全ては一本の糸で繋がっていたのですね。")
   0()
  EndIf()
  If(4,41,0)
   ShowMessageFace("stein_fc2",0,0,2,51)
   ShowMessage("\\n<Promestein>そして、その向かう先は完全なる混沌。 全ての並行世界が、あの世界のように消滅していく……")
   0()
  EndIf()
  ShowMessageFace("ruka_fc1",0,0,2,52)
  ShowMessage("\\n<Luka>この世界を、あんな風にはさせない！ そのためにも、やるべき事をやらないと……！")
  If(0,6,0)
   ShowMessageFace("sonia_fc1",0,0,2,53)
   ShowMessage("\\n<Sonya>世界の危機なんだから…… とことんまで付き合ってみせるわよ！")
   0()
  EndIf()
  If(4,129,0)
   ShowMessageFace("brunhild_fc1",0,0,2,54)
   ShowMessage("\\n<Hild>ヒルデも、いくよ…… 世界を守るのが、ヒルデの造られた理由だから……")
   0()
  EndIf()
  If(4,79,0)
   ShowMessageFace("nuruko_fc1",0,0,2,55)
   ShowMessage("\\n<Nuruko>きゅーっ！　きゅーっ！")
   0()
  EndIf()
  ShowMessageFace("ruka_fc1",0,0,2,56)
  ShowMessage("\\n<Luka>それじゃあ……みんな、行こう！")
  RunCommonEvent(305)
  355("gain_medal(30)")
  ShowMessageFace("",0,0,2,57)
  ShowMessage("迫り来る破滅、そして託された希望。 未知なる強敵と、そして心強い仲間。")
  ShowMessageFace("",0,0,2,58)
  ShowMessage("父の背中と、謎に満ちたパラドックス。 太古の妖魔に、異世界からの天使――")
  ShowMessageFace("",0,0,2,59)
  ShowMessage("この冒険で何を目にし、その果てに何を迎えるのか―― 希望と信念を胸に、僕達は一歩を踏み出した！")
  221()
  Wait(60)
  211(0)
  TeleportPlayer(0,620,1,0,0,2)
  222()
  0()
